module github.com/cdle/sillyGirl

go 1.16

replace github.com/willf/bitset v1.2.0 => github.com/bits-and-blooms/bitset v1.2.0

require (
	github.com/Baozisoftware/qrcode-terminal-go v0.0.0-20170407111555-c0650d8dff0f
	github.com/Mrs4s/MiraiGo v0.0.0-20210810070836-6614d2383adb
	github.com/Mrs4s/go-cqhttp v1.0.0-beta6
	github.com/PuerkitoBio/goquery v1.8.0
	github.com/astaxie/beego v1.12.3
	github.com/axgle/mahonia v0.0.0-20180208002826-3358181d7394
	github.com/beego/beego/v2 v2.0.1
	github.com/boltdb/bolt v1.3.1
	github.com/buger/jsonparser v1.1.1
	github.com/denisbrodbeck/machineid v1.0.1
	github.com/dop251/goja v0.0.0-20211203105952-bf6af58bbcc8
	github.com/eatmoreapple/openwechat v1.0.7
	github.com/gin-gonic/gin v1.7.0
	github.com/google/uuid v1.1.1
	github.com/gorilla/websocket v1.4.2
	github.com/guonaihong/gout v0.2.7 // indirect
	github.com/leodido/go-urn v1.2.1 // indirect
	github.com/lestrrat-go/file-rotatelogs v2.4.0+incompatible
	github.com/mattn/go-isatty v0.0.13 // indirect
	github.com/pkg/errors v0.9.1
	github.com/rixingyike/wechat v1.2.2
	github.com/robertkrimen/otto v0.0.0-20210927222213-f9375a256948
	github.com/robfig/cron/v3 v3.0.1
	github.com/silenceper/wechat/v2 v2.0.9
	github.com/sirupsen/logrus v1.8.1
	github.com/t-tomalak/logrus-easy-formatter v0.0.0-20190827215021-c074f06c5816
	github.com/tidwall/gjson v1.11.0 // indirect
	github.com/tuotoo/qrcode v0.0.0-20190222102259-ac9c44189bf2
	golang.org/x/net v0.0.0-20210916014120-12bc252f5db8
	golang.org/x/sys v0.0.0-20210630005230-0f9fa26af87c // indirect
	gopkg.in/tucnak/telebot.v2 v2.4.0
	gopkg.in/yaml.v2 v2.4.0
	gopkg.in/yaml.v3 v3.0.0-20210107192922-496545a6307b
)
